SPEI_prov
…
# write_csv(SPEI_filtered, file.path("SPEI_filtered"))

# Garder uniquement les lignes correspondant au mois de juillet
SPEI_filtered_july <- SPEI_filtered %>%
  filter(substr(dates, 6, 7) == "07")  # <- on ignore complètement l'année ici

# Calculer la moyenne globale de spei01 pour juillet, par province
moyennes_juillet <- SPEI_filtered_july %>%
  group_by(prov) %>%
  summarise(moyenne_spei_juillet = mean(spei01, na.rm = TRUE))

# Afficher les résultats
print(moyennes_juillet)

# A tibble: 23 × 2
   prov  moyenne_spei_juillet
   <fct>                <dbl>
 1 BIVG              3.58e-18
 2 BOLE             -2.06e- 1
 3 BOR              -9.03e- 2
 4 DALJ              5.48e- 2
 5 DEBO             -9.68e- 2
 6 GUZN             -2.58e- 2
 7 HAGN             -8.06e- 2
 8 KUBR             -2.13e- 1
 9 LIGO             -2.13e- 1
10 LIPO              2.90e- 2
# ℹ 13 more rows
…
